8|18711|20715|4898|29163|19609|8939|11687|23579|5217|13354|23966|28739|24130|4070|30799|25294
9|4169|20202|13740|23102|22028|29031|17105|24155|19752|15479|1788|24240|20229|2518|31403|19170
10|3136|1530|6146|19991|29074|26071|15322|14326|14647|5308|7675|7563|12254|27190|15099|29055
11|32064|15224|27330|4922|6047|4960|8254|8847|7588|6896|14869|26844|3641|29240|29713|12800
12|28431|30791|8109|28469|21907|28205|29476|30432|9805|15448|4140|25240|5059|13469|368|13471
13|26172|7117|25683|24866|22681|18231|4367|6839|7223|8819|21806|28404|2449|12265|5590|22575
14|17597|8180|9376|21241|1800|31832|17329|25225|14965|7723|19535|30998|25803|30764|20582|8415
15|19613|31009|6994|18390|25414|18306|32544|15544|1890|24706|8407|13260|14728|25148|271|15070
16|32581|14087|20737|29136|17868|30009|11483|6694|25672|25861|21817|17353|7908|19830|15517|13880
17|14952|12508|27919|18437|3270|29478|8023|24444|3515|13164|5604|2715|26544|10910|10783|7655
18|32590|32645|17668|20147|3034|24752|1911|26510|16786|12808|21239|8789|13054|26707|28921|3136
19|26260|17373|14027|28667|26374|27813|31616|15370|21432|2932|16668|27068|23393|29547|9572|3770
20|9850|18268|4486|7050|10025|13814|18483|16087|21226|14812|14930|32211|20988|6264|3774|1857
21|4520|20142|19346|4962|23027|15797|27360|28004|25516|1156|4849|15592|16904|29173|23454|10088
22|30848|25478|9160|20420|7538|101|4120|18080|27568|10555|15286|28429|24152|13567|2170|13323
23|29903|2257|4819|9980|4729|2796|19924|22069|30733|23917|19765|4142|24416|29357|28731|27775
24|16269|388|7724|6866|31361|27635|23778|6384|24416|20520|20014|23286|8112|32240|25493|7872
25|32584|210|31038|8101|24071|28976|12915|20858|29415|28204|17344|8866|28778|3593|16601|15336
26|20144|11727|17569|29303|15267|6124|10033|8390|19090|960|2272|1003|31989|5354|21511|23269
27|11688|7046|18137|8823|31259|10004|19810|13919|16627|21915|21793|11995|20676|15045|11908|14258
28|25619|28257|31443|24590|23034|30862|27008|333|1047|23545|29582|5243|16031|22851|28227|12673
29|22974|26585|10828|1112|2838|10264|6849|13912|10530|13908|8914|21274|9347|15996|25638|22351
30|9529|32524|18508|15134|22818|27626|29929|7853|4738|27300|22670|2823|14874|21194|130|8925
31|7765|8767|31955|17954|8010|27177|1994|5761|9252|29678|24685|15243|30149|10413|13402|16425
32|7953|21835|27906|26921|12900|28057|6862|9039|18134|12070|8740|11502|29774|23643|12664|6230
33|30456|25533|26616|5687|13057|19205|22944|25548|6501|31494|30189|21236|25576|16769|18185|17618
34|29632|2249|28382|23360|3288|31686|10564|20516|3190|28709|20341|10768|23290|12235|26347|10421
35|20436|11878|18888|12912|6458|30852|29735|24983|19307|946|15587|32521|18215|5195|3991|13086
36|13892|27036|10129|23849|25451|22983|22582|5821|11149|32502|7318|1789|10189|16652|21773|5318
37|116|5736|14971|3025|667|21109|17834|16819|31132|19293|29460|26665|1807|6652|8873|24280
38|27790|807|5175|31139|3350|16403|30573|18534|24086|17155|8038|6262|5361|5448|20330|3180
39|20270|7135|27202|12922|8545|5031|2035|10325|1879|1977|14301|26935|22579|10866|24017|27227
40|21785|1629|3077|26617|25248|14525|12518|7832|19683|10169|9477|10734|32160|15766|4349|1269
41|13744|29230|28011|24523|20715|9159|32628|23398|12084|22479|2280|21770|23206|6661|32618|15496
42|21921|30679|2747|7599|32641|18116|19244|31884|8821|26182|13285|22373|28949|18971|2642|11079
43|32068|17684|25008|11316|22299|1857|2968|22267|13847|28164|30415|18352|5505|1448|11670|6834
44|18904|15969|11291|22756|7190|3015|26755|6416|7584|5269|735|11187|7473|15746|22461|28708
45|32340|129|17202|16703|23425|11346|26526|28217|3788|5218|1584|1490|27552|301|3460|10424
46|25726|18685|13312|2412|28021|15886|10764|9385|5761|14897|6028|12519|26648|21619|27146|29755
47|32524|7730|6281|3796|22784|25294|26967|31243|16607|7290|26644|20598|20169|6305|9034|11514
48|911|29782|280|1687|19131|31468|16130|25297|17063|1679|23020|26858|13488|25822|28278|9137
49|234|15637|32210|11279|27138|22141|28047|7673|29973|23476|23841|30713|22364|11922|11398|19186
50|10093|11724|22118|5110|15580|16918|32603|323|32653|18636|31119|19085|3742|26044|14727|6083
51|24647|8895|28206|18972|21131|22494|3275|12438|4913|13987|13408|15968|21111|9783|12726|23011
52|6743|2324|17630|10136|17765|7110|10212|17869|13546|8517|2604|27575|2118|21396|17439|3352
53|29886|12402|23549|29832|16269|28760|17907|12409|7705|22287|17899|26314|10650|26429|1306|3327
54|30524|13333|5815|27995|13217|27355|32526|3918|32499|24811|13863|32372|9363|23398|14520|29503
55|1747|15227|13063|21583|25498|21336|31029|23419|6654|4233|22087|28974|10238|17556|5731|29776
56|23065|15843|24502|28161|19392|22724|839|25634|5038|20111|13973|8643|13353|8989|30758|20643
57|16313|26231|11026|22105|7805|27194|23108|25147|14759|10316|22653|12774|14792|8500|5177|24901
