1|1|1|1|17|15317.00|0.04|0.02|N|O|1996-03-13|1996-02-12|1996-03-22|DELIVER IN PERSON|TRUCK|egular courts above b00
1|1|1|2|36|32436.00|0.09|0.06|N|O|1996-04-12|1996-02-28|1996-04-20|TAKE BACK RETURN|MAIL|ly final dependencies: slyly lves 
1|1|1|3|8|7208.00|0.10|0.02|N|O|1996-01-29|1996-03-05|1996-01-31|TAKE BACK RETURN|REG AIR|riously. regular, mommers dep
1|1|1|4|28|25228.00|0.09|0.06|N|O|1996-04-21|1996-03-30|1996-05-16|NONE|AIR|t3ddy. fluffily even de
1|1|1|5|24|21624.00|0.10|0.04|N|O|1996-03-30|1996-03-14|1996-04-01|NONE|FOB| pending l0v3s. slyly re
1|1|1|6|32|28832.00|0.07|0.02|N|O|1996-01-30|1996-02-07|1996-02-03|DELIVER IN PERSON|MAIL|6a6y6oo slyly ex
