C|17262|4755|19727|23178|23360|9171|18854|21760|16999|10176|617|28550|5377|14733|5345|23764
H|8160|26203|15770|1304|8067|1150|17879|27718|6232|4421|9229|6188|4459|15418|14144|29109
E|31269|28351|27476|32089|10258|23293|19163|4708|6522|22991|26373|20054|9472|20644|6367|7101
E|29442|16095|21689|25852|5195|8510|11739|22968|5167|24031|7425|26114|21477|8206|11006|13561
N|4823|16209|9317|13496|29000|21591|26861|18158|2259|12934|13142|31679|26087|22845|1710|18199
U|31088|20962|6370|23882|21524|7125|5263|2721|5510|16868|13628|5342|16340|8266|2187|14963
9|5244|10015|2022|27217|15574|10337|17657|25873|26440|29203|26302|7479|11253|15448|26678|4014
10|10647|7643|17185|25757|10816|11149|22546|21736|30959|19514|13713|7567|26090|3851|17366|26518
11|25384|7798|29738|12641|841|30447|7451|1313|27897|3467|18432|12470|16048|14499|4377|23886
12|22587|21636|18794|10215|2960|22373|18789|18938|661|14892|28566|8275|1431|14442|22089|8615
13|8922|15746|29473|8217|32508|31365|29950|2387|31514|6110|14829|9816|14611|17114|15462|9226
14|17543|17766|30|26025|24655|3403|29172|4140|2147|17989|12368|1511|19264|8289|733|20778
15|29330|30027|18210|20818|6795|15987|5334|4422|21249|16269|3707|28208|25061|23736|32194|30584
16|4598|31785|14382|9031|24954|18778|32746|9155|8114|14211|11928|19416|5879|30819|26959|32117
17|11476|15325|21134|3126|21762|6727|26389|23517|21655|16586|18004|30043|24189|4251|1982|9290
18|7994|17247|22959|6562|4812|13571|13757|16467|19330|189|5664|15163|25483|23393|1886|32726
19|24598|25448|4908|30410|5102|18863|9463|29746|10430|11280|31387|32564|23754|4900|26289|14164
20|5334|12056|8695|11657|6890|9043|24310|4866|14004|7496|2571|1961|13942|14812|29626|623
21|3758|1778|13344|31155|4055|10323|967|19570|1845|22155|31656|2574|16535|18489|23125|20833
22|30034|13710|19153|6282|13955|9887|18531|10834|15140|4491|26243|22320|19567|19831|28187|30030
23|12505|17460|22434|731|9569|17435|6701|10283|21100|21239|5996|2733|940|21014|25993|18180
24|8564|8853|533|30603|29316|1309|2864|6499|30990|19768|22295|29109|29120|14647|3614|1066
25|6253|20116|9957|18956|520|1326|22084|12563|31735|28874|4337|26195|32621|31873|8366|19141
26|6835|13684|4752|23353|14188|17802|15363|9900|5401|18745|30703|14159|17323|22760|5966|15756
27|24286|5984|30651|21324|20842|20997|25698|2998|13728|16934|10539|27032|12009|2481|6608|28144
28|28486|7315|5270|19208|21822|8436|11232|18789|19696|27717|780|21023|3686|9405|16535|13049
29|8621|7355|3692|9641|19147|6135|32433|23192|32455|23513|18453|1251|12718|17892|17604|27596
30|18051|4484|12793|32288|16001|15460|401|31053|30717|12144|13338|20900|4120|17606|24886|31572
31|28870|10280|3293|15584|17178|2190|19664|11700|8704|22302|8358|9445|23661|12761|23319|5825
32|2580|20064|19306|15305|14095|4300|23990|1989|26001|14507|5139|18693|6018|5953|1006|11368
33|1112|19483|13139|17918|20714|23343|7912|17366|24433|7894|13471|20425|14921|21906|13415|12398
34|22315|28292|27866|6160|26258|12580|24442|4631|20096|3125|3526|2599|24029|30848|23386|6365
35|12942|18425|22543|28072|24962|21723|20383|7925|8442|11086|13066|883|8735|20264|27270|11314
36|13097|27700|7692|30024|26281|14319|22950|30088|28731|2433|5674|18479|14755|15889|30156|662
37|8307|7283|25491|30438|10218|10231|9274|31639|8097|12145|29339|26429|11934|18141|7815|23035
38|5991|13070|3947|23073|24669|17431|27915|14723|31158|26033|31121|19951|18291|30933|10864|22098
39|22524|8748|10686|21667|15976|24607|19529|4806|11514|891|21264|2337|9069|917|28885|26961
40|26888|17550|4758|25866|10000|19541|2995|22707|31530|21545|28729|2509|4277|8660|3520|30008
41|21630|29939|20185|18164|30527|7686|21986|11233|4393|27417|21481|8540|18143|4248|16918|22743
42|16824|23837|30468|19076|26891|9691|4105|5961|5849|15755|7581|2431|10352|3226|7987|2532
43|12846|6605|13423|16087|25011|2664|30991|3853|26794|8117|17719|25519|7608|20202|15223|8405
44|19078|26247|32184|24876|20144|21895|24458|4394|863|11217|19660|15761|6910|25336|25339|3964
45|26102|9091|12173|11699|29817|30992|25270|30572|3767|25861|25201|5594|14862|16176|11051|19334
46|6881|54|5508|27375|13426|19616|27283|30310|17483|26076|32347|21640|32099|10364|1852|6539
47|17739|3467|23308|14420|18656|7081|5565|619|6411|19464|23443|18431|32730|28366|17973|30542
48|17685|5700|3478|20508|10121|12420|24656|18326|2430|26216|30038|8996|20070|18754|23782|16738
49|26280|20316|24044|25881|10055|18608|15126|21972|3940|3004|6497|175|13673|13490|28326|5758
50|31721|12135|22438|31870|23580|27681|2145|23356|31437|28975|6464|22018|29170|1900|7755|4367
51|13890|19295|4137|10929|7749|30135|25294|6496|19170|1599|28582|19676|12402|17891|25958|18883
52|22276|3373|15800|9496|29094|7524|22075|3888|30249|14792|11045|13352|20694|19942|303|3403
